…
  - Using the `launches` data, count the total number of launches per
    `launch_year`, grouped by `state_code`.

<!-- end list -->

``` r
launches %>%  
  group_by(state_code, launch_year) %>%  
  summarise(launches_total = n()) 
```

    ## `summarise()` regrouping output by 'state_code' (override with `.groups` argument)

    ## # A tibble: 338 x 3
    ## # Groups:   state_code [17]
    ##    state_code launch_year launches_total
    ##    <chr>            <dbl>          <int>
    ##  1 BR                1997              1
    ##  2 BR                1999              1
    ##  3 CN                1970              1
    ##  4 CN                1971              1
    ##  5 CN                1973              1
    ##  6 CN                1974              2
    ##  7 CN                1975              3
    ##  8 CN                1976              3
    ##  9 CN                1978              1
    ## 10 CN                1979              1
    ## # … with 328 more rows
…
  - Then, using `arrange` answer the question: which year was the
    busiest for any state?

<!-- end list -->

``` r
launches %>%  
  group_by(state_code, launch_year) %>%  
  summarise(launches_total = n()) %>%  
  arrange(desc(launches_total))
```

    ## `summarise()` regrouping output by 'state_code' (override with `.groups` argument)

    ## # A tibble: 338 x 3
    ## # Groups:   state_code [17]
    ##    state_code launch_year launches_total
    ##    <chr>            <dbl>          <int>
    ##  1 SU                1982            108
    ##  2 SU                1977            102
    ##  3 SU                1976            100
    ##  4 SU                1981            100
    ##  5 SU                1983            100
    ##  6 SU                1985            100
    ##  7 SU                1984             97
    ##  8 SU                1987             96
    ##  9 SU                1986             94
    ## 10 SU                1988             94
    ## # … with 328 more rows
…
<!-- end list -->

``` r
launches %>%  
  group_by(state_code, launch_year) %>%  
  summarise(launches_total = n()) %>%  
  filter(state_code == 'US') %>%  
  arrange(desc(launches_total))
```

    ## `summarise()` regrouping output by 'state_code' (override with `.groups` argument)

    ## # A tibble: 62 x 3
    ## # Groups:   state_code [1]
    ##    state_code launch_year launches_total
    ##    <chr>            <dbl>          <int>
    ##  1 US                1966             77
    ##  2 US                1965             70
    ##  3 US                1964             63
    ##  4 US                1967             61
    ##  5 US                1962             59
    ##  6 US                1968             48
    ##  7 US                1963             46
    ##  8 US                1961             41
    ##  9 US                1969             41
    ## 10 US                1997             38
    ## # … with 52 more rows
…
