…
  - Since we know that each of the types of animals has a specific
    amount that they eat, let’s label them “hungry boi” if they eat more
    than average; and “slender boi” if they eat less than average.
    (Sorry… I know this coding might be getting tedious\!).
  - Make each of these relative to the mean within that animal type.

<!-- end list -->

``` r
tilden %>%
  group_by(animal) %>%  
  mutate(hungry_slender = ifelse(weight > mean(weight), 'hungry boi', 'slender boi'))
```

    ## # A tibble: 300 x 6
    ## # Groups:   animal [5]
    ##       ID animal petting_zoo weight  feed hungry_slender
    ##    <int> <chr>  <chr>        <dbl> <dbl> <chr>         
    ##  1     1 cow    no           1269.  38.1 hungry boi    
    ##  2     2 cow    no           1013.  30.4 slender boi   
    ##  3     3 cow    no           1098.  32.9 hungry boi    
    ##  4     4 cow    no            926.  27.8 slender boi   
    ##  5     5 cow    no           1196.  35.9 hungry boi    
    ##  6     6 cow    no           1036.  31.1 slender boi   
    ##  7     7 cow    no            950.  28.5 slender boi   
    ##  8     8 cow    no            981.  29.4 slender boi   
    ##  9     9 cow    no            981.  29.4 slender boi   
    ## 10    10 cow    no           1118.  33.5 hungry boi    
    ## # … with 290 more rows
