…
Adding in the `state_code` variable,

  - Arrange the data so that it is sorted first by `launch_year` and
    then by `state_code`

<!-- end list -->

``` r
launches %>% 
  arrange(launch_year, state_code)
```

    ## # A tibble: 5,726 x 11
    ##    tag       JD launch_date launch_year type  variant mission agency state_code
    ##    <chr>  <dbl> <date>            <dbl> <chr> <chr>   <chr>   <chr>  <chr>     
    ##  1 1957… 2.44e6 1957-10-04         1957 Sput… <NA>    PS-1    <NA>   SU        
    ##  2 1957… 2.44e6 1957-11-03         1957 Sput… <NA>    PS-2    <NA>   SU        
    ##  3 1957… 2.44e6 1957-12-06         1957 Vang… <NA>    Vangua… US     US        
    ##  4 1958… 2.44e6 1958-05-15         1958 Sput… <NA>    D-1 No… <NA>   SU        
    ##  5 1958… 2.44e6 1958-04-27         1958 Sput… <NA>    D-1 No… <NA>   SU        
    ##  6 1958… 2.44e6 1958-09-23         1958 Vost… <NA>    E-1 No… <NA>   SU        
    ##  7 1958… 2.44e6 1958-10-11         1958 Vost… <NA>    E-1 No… <NA>   SU        
    ##  8 1958… 2.44e6 1958-12-04         1958 Vost… <NA>    E-1 No… <NA>   SU        
    ##  9 1958… 2.44e6 1958-02-01         1958 Jupi… JunoI   Explor… US     US        
    ## 10 1958… 2.44e6 1958-03-26         1958 Jupi… JunoI   Explor… US     US        
    ## # … with 5,716 more rows, and 2 more variables: category <chr>,
    ## #   agency_type <chr>
